^C:\USERS\OGNIAN\SOURCE\REPOS\TEST\REVO HELPER\REVO HELPER\SOURCES\DIALOGTASK.CPP
/c /I"C:\USERS\OGNIAN\SOURCE\REPOS\TEST\REVO HELPER\REVO HELPER\\..\LIBS\NANA\INCLUDE" /Zi /nologo /W3 /WX- /diagnostics:column /O2 /Oi /Oy- /GL /D WIN32 /D NDEBUG /D _WINDOWS /D _USRDLL /D RevoHelper_EXPORTS /D _UNICODE /D UNICODE /Gm- /EHsc /MT /GS /Gy /fp:precise /Zc:wchar_t /Zc:forScope /Zc:inline /std:c++17 /Fo"RELEASE FREE\\" /Fd"RELEASE FREE\VC142.PDB" /external:W3 /Gd /TP /analyze- /FC C:\USERS\OGNIAN\SOURCE\REPOS\TEST\REVO HELPER\REVO HELPER\SOURCES\DIALOGTASK.CPP
^C:\USERS\OGNIAN\SOURCE\REPOS\TEST\REVO HELPER\REVO HELPER\SOURCES\INI.CPP
/c /I"C:\USERS\OGNIAN\SOURCE\REPOS\TEST\REVO HELPER\REVO HELPER\\..\LIBS\NANA\INCLUDE" /Zi /nologo /W3 /WX- /diagnostics:column /O2 /Oi /Oy- /GL /D WIN32 /D NDEBUG /D _WINDOWS /D _USRDLL /D RevoHelper_EXPORTS /D _UNICODE /D UNICODE /Gm- /EHsc /MT /GS /Gy /fp:precise /Zc:wchar_t /Zc:forScope /Zc:inline /std:c++17 /Fo"RELEASE FREE\\" /Fd"RELEASE FREE\VC142.PDB" /external:W3 /Gd /TP /analyze- /FC C:\USERS\OGNIAN\SOURCE\REPOS\TEST\REVO HELPER\REVO HELPER\SOURCES\INI.CPP
^C:\USERS\OGNIAN\SOURCE\REPOS\TEST\REVO HELPER\REVO HELPER\SOURCES\INIDATA.CPP
/c /I"C:\USERS\OGNIAN\SOURCE\REPOS\TEST\REVO HELPER\REVO HELPER\\..\LIBS\NANA\INCLUDE" /Zi /nologo /W3 /WX- /diagnostics:column /O2 /Oi /Oy- /GL /D WIN32 /D NDEBUG /D _WINDOWS /D _USRDLL /D RevoHelper_EXPORTS /D _UNICODE /D UNICODE /Gm- /EHsc /MT /GS /Gy /fp:precise /Zc:wchar_t /Zc:forScope /Zc:inline /std:c++17 /Fo"RELEASE FREE\\" /Fd"RELEASE FREE\VC142.PDB" /external:W3 /Gd /TP /analyze- /FC C:\USERS\OGNIAN\SOURCE\REPOS\TEST\REVO HELPER\REVO HELPER\SOURCES\INIDATA.CPP
^C:\USERS\OGNIAN\SOURCE\REPOS\TEST\REVO HELPER\REVO HELPER\SOURCES\OLDUTILS.CPP
/c /I"C:\USERS\OGNIAN\SOURCE\REPOS\TEST\REVO HELPER\REVO HELPER\\..\LIBS\NANA\INCLUDE" /Zi /nologo /W3 /WX- /diagnostics:column /O2 /Oi /Oy- /GL /D WIN32 /D NDEBUG /D _WINDOWS /D _USRDLL /D RevoHelper_EXPORTS /D _UNICODE /D UNICODE /Gm- /EHsc /MT /GS /Gy /fp:precise /Zc:wchar_t /Zc:forScope /Zc:inline /std:c++17 /Fo"RELEASE FREE\\" /Fd"RELEASE FREE\VC142.PDB" /external:W3 /Gd /TP /analyze- /FC C:\USERS\OGNIAN\SOURCE\REPOS\TEST\REVO HELPER\REVO HELPER\SOURCES\OLDUTILS.CPP
^C:\USERS\OGNIAN\SOURCE\REPOS\TEST\REVO HELPER\REVO HELPER\SOURCES\REGISTRY.CPP
/c /I"C:\USERS\OGNIAN\SOURCE\REPOS\TEST\REVO HELPER\REVO HELPER\\..\LIBS\NANA\INCLUDE" /Zi /nologo /W3 /WX- /diagnostics:column /O2 /Oi /Oy- /GL /D WIN32 /D NDEBUG /D _WINDOWS /D _USRDLL /D RevoHelper_EXPORTS /D _UNICODE /D UNICODE /Gm- /EHsc /MT /GS /Gy /fp:precise /Zc:wchar_t /Zc:forScope /Zc:inline /std:c++17 /Fo"RELEASE FREE\\" /Fd"RELEASE FREE\VC142.PDB" /external:W3 /Gd /TP /analyze- /FC C:\USERS\OGNIAN\SOURCE\REPOS\TEST\REVO HELPER\REVO HELPER\SOURCES\REGISTRY.CPP
^C:\USERS\OGNIAN\SOURCE\REPOS\TEST\REVO HELPER\REVO HELPER\SOURCES\UNINSTALLERUTILS.CPP
/c /I"C:\USERS\OGNIAN\SOURCE\REPOS\TEST\REVO HELPER\REVO HELPER\\..\LIBS\NANA\INCLUDE" /Zi /nologo /W3 /WX- /diagnostics:column /O2 /Oi /Oy- /GL /D WIN32 /D NDEBUG /D _WINDOWS /D _USRDLL /D RevoHelper_EXPORTS /D _UNICODE /D UNICODE /Gm- /EHsc /MT /GS /Gy /fp:precise /Zc:wchar_t /Zc:forScope /Zc:inline /std:c++17 /Fo"RELEASE FREE\\" /Fd"RELEASE FREE\VC142.PDB" /external:W3 /Gd /TP /analyze- /FC C:\USERS\OGNIAN\SOURCE\REPOS\TEST\REVO HELPER\REVO HELPER\SOURCES\UNINSTALLERUTILS.CPP
^C:\USERS\OGNIAN\SOURCE\REPOS\TEST\REVO HELPER\REVO HELPER\SOURCES\UTILS.CPP
/c /I"C:\USERS\OGNIAN\SOURCE\REPOS\TEST\REVO HELPER\REVO HELPER\\..\LIBS\NANA\INCLUDE" /Zi /nologo /W3 /WX- /diagnostics:column /O2 /Oi /Oy- /GL /D WIN32 /D NDEBUG /D _WINDOWS /D _USRDLL /D RevoHelper_EXPORTS /D _UNICODE /D UNICODE /Gm- /EHsc /MT /GS /Gy /fp:precise /Zc:wchar_t /Zc:forScope /Zc:inline /std:c++17 /Fo"RELEASE FREE\\" /Fd"RELEASE FREE\VC142.PDB" /external:W3 /Gd /TP /analyze- /FC C:\USERS\OGNIAN\SOURCE\REPOS\TEST\REVO HELPER\REVO HELPER\SOURCES\UTILS.CPP
^C:\USERS\OGNIAN\SOURCE\REPOS\TEST\REVO HELPER\REVO HELPER\SOURCES\VSSETTINGS.CPP
/c /I"C:\USERS\OGNIAN\SOURCE\REPOS\TEST\REVO HELPER\REVO HELPER\\..\LIBS\NANA\INCLUDE" /Zi /nologo /W3 /WX- /diagnostics:column /O2 /Oi /Oy- /GL /D WIN32 /D NDEBUG /D _WINDOWS /D _USRDLL /D RevoHelper_EXPORTS /D _UNICODE /D UNICODE /Gm- /EHsc /MT /GS /Gy /fp:precise /Zc:wchar_t /Zc:forScope /Zc:inline /std:c++17 /Fo"RELEASE FREE\\" /Fd"RELEASE FREE\VC142.PDB" /external:W3 /Gd /TP /analyze- /FC C:\USERS\OGNIAN\SOURCE\REPOS\TEST\REVO HELPER\REVO HELPER\SOURCES\VSSETTINGS.CPP
^C:\USERS\OGNIAN\SOURCE\REPOS\TEST\REVO HELPER\REVO HELPER\SOURCES\DIRUTILS.CPP
/c /I"C:\USERS\OGNIAN\SOURCE\REPOS\TEST\REVO HELPER\REVO HELPER\\..\LIBS\NANA\INCLUDE" /Zi /nologo /W3 /WX- /diagnostics:column /O2 /Oi /Oy- /GL /D WIN32 /D NDEBUG /D _WINDOWS /D _USRDLL /D RevoHelper_EXPORTS /D _UNICODE /D UNICODE /Gm- /EHsc /MT /GS /Gy /fp:precise /Zc:wchar_t /Zc:forScope /Zc:inline /std:c++17 /Fo"RELEASE FREE\\" /Fd"RELEASE FREE\VC142.PDB" /external:W3 /Gd /TP /analyze- /FC C:\USERS\OGNIAN\SOURCE\REPOS\TEST\REVO HELPER\REVO HELPER\SOURCES\DIRUTILS.CPP
^C:\USERS\OGNIAN\SOURCE\REPOS\TEST\REVO HELPER\REVO HELPER\SOURCES\DIRUTILS.H
/c /I"C:\USERS\OGNIAN\SOURCE\REPOS\TEST\REVO HELPER\REVO HELPER\\..\LIBS\NANA\INCLUDE" /Zi /nologo /W3 /WX- /diagnostics:column /O2 /Oi /Oy- /GL /D WIN32 /D NDEBUG /D _WINDOWS /D _USRDLL /D RevoHelper_EXPORTS /D _UNICODE /D UNICODE /Gm- /EHsc /MT /GS /Gy /fp:precise /Zc:wchar_t /Zc:forScope /Zc:inline /std:c++17 /Fo"RELEASE FREE\\" /Fd"RELEASE FREE\VC142.PDB" /external:W3 /Gd /TP /analyze- /FC C:\USERS\OGNIAN\SOURCE\REPOS\TEST\REVO HELPER\REVO HELPER\SOURCES\DIRUTILS.H
^C:\USERS\OGNIAN\SOURCE\REPOS\TEST\REVO HELPER\REVO HELPER\SOURCES\GUI.CPP
/c /I"C:\USERS\OGNIAN\SOURCE\REPOS\TEST\REVO HELPER\REVO HELPER\\..\LIBS\NANA\INCLUDE" /Zi /nologo /W3 /WX- /diagnostics:column /O2 /Oi /Oy- /GL /D WIN32 /D NDEBUG /D _WINDOWS /D _USRDLL /D RevoHelper_EXPORTS /D _UNICODE /D UNICODE /Gm- /EHsc /MT /GS /Gy /fp:precise /Zc:wchar_t /Zc:forScope /Zc:inline /std:c++17 /Fo"RELEASE FREE\\" /Fd"RELEASE FREE\VC142.PDB" /external:W3 /Gd /TP /analyze- /FC C:\USERS\OGNIAN\SOURCE\REPOS\TEST\REVO HELPER\REVO HELPER\SOURCES\GUI.CPP
^C:\USERS\OGNIAN\SOURCE\REPOS\TEST\REVO HELPER\REVO HELPER\SOURCES\LANGUAGE.CPP
/c /I"C:\USERS\OGNIAN\SOURCE\REPOS\TEST\REVO HELPER\REVO HELPER\\..\LIBS\NANA\INCLUDE" /Zi /nologo /W3 /WX- /diagnostics:column /O2 /Oi /Oy- /GL /D WIN32 /D NDEBUG /D _WINDOWS /D _USRDLL /D RevoHelper_EXPORTS /D _UNICODE /D UNICODE /Gm- /EHsc /MT /GS /Gy /fp:precise /Zc:wchar_t /Zc:forScope /Zc:inline /std:c++17 /Fo"RELEASE FREE\\" /Fd"RELEASE FREE\VC142.PDB" /external:W3 /Gd /TP /analyze- /FC C:\USERS\OGNIAN\SOURCE\REPOS\TEST\REVO HELPER\REVO HELPER\SOURCES\LANGUAGE.CPP
^C:\USERS\OGNIAN\SOURCE\REPOS\TEST\REVO HELPER\REVO HELPER\SOURCES\MAIN.CPP
/c /I"C:\USERS\OGNIAN\SOURCE\REPOS\TEST\REVO HELPER\REVO HELPER\\..\LIBS\NANA\INCLUDE" /Zi /nologo /W3 /WX- /diagnostics:column /O2 /Oi /Oy- /GL /D WIN32 /D NDEBUG /D _WINDOWS /D _USRDLL /D RevoHelper_EXPORTS /D _UNICODE /D UNICODE /Gm- /EHsc /MT /GS /Gy /fp:precise /Zc:wchar_t /Zc:forScope /Zc:inline /std:c++17 /Fo"RELEASE FREE\\" /Fd"RELEASE FREE\VC142.PDB" /external:W3 /Gd /TP /analyze- /FC C:\USERS\OGNIAN\SOURCE\REPOS\TEST\REVO HELPER\REVO HELPER\SOURCES\MAIN.CPP
^C:\USERS\OGNIAN\SOURCE\REPOS\TEST\REVO HELPER\REVO HELPER\SOURCES\STDAFX.CPP
/c /I"C:\USERS\OGNIAN\SOURCE\REPOS\TEST\REVO HELPER\REVO HELPER\\..\LIBS\NANA\INCLUDE" /Zi /nologo /W3 /WX- /diagnostics:column /O2 /Oi /Oy- /GL /D WIN32 /D NDEBUG /D _WINDOWS /D _USRDLL /D RevoHelper_EXPORTS /D _UNICODE /D UNICODE /Gm- /EHsc /MT /GS /Gy /fp:precise /Zc:wchar_t /Zc:forScope /Zc:inline /std:c++17 /Fo"RELEASE FREE\\" /Fd"RELEASE FREE\VC142.PDB" /external:W3 /Gd /TP /analyze- /FC C:\USERS\OGNIAN\SOURCE\REPOS\TEST\REVO HELPER\REVO HELPER\SOURCES\STDAFX.CPP
^C:\USERS\OGNIAN\SOURCE\REPOS\TEST\REVO HELPER\REVO HELPER\SOURCES\LEFTOVERSCANNERWRAPPER.CPP
/c /I"C:\USERS\OGNIAN\SOURCE\REPOS\TEST\REVO HELPER\REVO HELPER\\..\LIBS\NANA\INCLUDE" /Zi /nologo /W3 /WX- /diagnostics:column /O2 /Oi /Oy- /GL /D WIN32 /D NDEBUG /D _WINDOWS /D _USRDLL /D RevoHelper_EXPORTS /D _UNICODE /D UNICODE /Gm- /EHsc /MT /GS /Gy /fp:precise /Zc:wchar_t /Zc:forScope /Zc:inline /std:c++17 /Fo"RELEASE FREE\\" /Fd"RELEASE FREE\VC142.PDB" /external:W3 /Gd /TP /analyze- /FC C:\USERS\OGNIAN\SOURCE\REPOS\TEST\REVO HELPER\REVO HELPER\SOURCES\LEFTOVERSCANNERWRAPPER.CPP
^C:\USERS\OGNIAN\SOURCE\REPOS\TEST\REVO HELPER\REVO HELPER\SOURCES\PROCESSUTILS.CPP
/c /I"C:\USERS\OGNIAN\SOURCE\REPOS\TEST\REVO HELPER\REVO HELPER\\..\LIBS\NANA\INCLUDE" /Zi /nologo /W3 /WX- /diagnostics:column /O2 /Oi /Oy- /GL /D WIN32 /D NDEBUG /D _WINDOWS /D _USRDLL /D RevoHelper_EXPORTS /D _UNICODE /D UNICODE /Gm- /EHsc /MT /GS /Gy /fp:precise /Zc:wchar_t /Zc:forScope /Zc:inline /std:c++17 /Fo"RELEASE FREE\\" /Fd"RELEASE FREE\VC142.PDB" /external:W3 /Gd /TP /analyze- /FC C:\USERS\OGNIAN\SOURCE\REPOS\TEST\REVO HELPER\REVO HELPER\SOURCES\PROCESSUTILS.CPP
^C:\USERS\OGNIAN\SOURCE\REPOS\TEST\REVO HELPER\REVO HELPER\SOURCES\VSREGTREE.CPP
/c /I"C:\USERS\OGNIAN\SOURCE\REPOS\TEST\REVO HELPER\REVO HELPER\\..\LIBS\NANA\INCLUDE" /Zi /nologo /W3 /WX- /diagnostics:column /O2 /Oi /Oy- /GL /D WIN32 /D NDEBUG /D _WINDOWS /D _USRDLL /D RevoHelper_EXPORTS /D _UNICODE /D UNICODE /Gm- /EHsc /MT /GS /Gy /fp:precise /Zc:wchar_t /Zc:forScope /Zc:inline /std:c++17 /Fo"RELEASE FREE\\" /Fd"RELEASE FREE\VC142.PDB" /external:W3 /Gd /TP /analyze- /FC C:\USERS\OGNIAN\SOURCE\REPOS\TEST\REVO HELPER\REVO HELPER\SOURCES\VSREGTREE.CPP
^C:\USERS\OGNIAN\SOURCE\REPOS\TEST\REVO HELPER\REVO HELPER\SOURCES\VSTRACKFINDER.CPP
/c /I"C:\USERS\OGNIAN\SOURCE\REPOS\TEST\REVO HELPER\REVO HELPER\\..\LIBS\NANA\INCLUDE" /Zi /nologo /W3 /WX- /diagnostics:column /O2 /Oi /Oy- /GL /D WIN32 /D NDEBUG /D _WINDOWS /D _USRDLL /D RevoHelper_EXPORTS /D _UNICODE /D UNICODE /Gm- /EHsc /MT /GS /Gy /fp:precise /Zc:wchar_t /Zc:forScope /Zc:inline /std:c++17 /Fo"RELEASE FREE\\" /Fd"RELEASE FREE\VC142.PDB" /external:W3 /Gd /TP /analyze- /FC C:\USERS\OGNIAN\SOURCE\REPOS\TEST\REVO HELPER\REVO HELPER\SOURCES\VSTRACKFINDER.CPP
